Daily Overview
…
prop_tab(daily, dub1) # Yes = 1, No = 0, Prefer not to respond = 3

# A tibble: 3 × 3
   dub1     n    prop
  <dbl> <int>   <dbl>
1     0  5314 0.899  
2     1   563 0.0952 
3    NA    35 0.00592

There are NA because they had said “No” or “Prefer not to respond” to most of the questions above.

daily[is.na(daily$dub1),] %>% 
  select(aub1, psb1, osb1, ssb1)

# A tibble: 35 × 4
    aub1  psb1  osb1  ssb1
   <dbl> <dbl> <dbl> <dbl>
 1     1     0     0     0
 2     0     0     3     3
 3     3     3     3     3
 4     3     3     3     3
 5     0     0     0     0
 6     0     0     0     0
 7     1     0     0     0
 8     0     0     0     0
 9     0     0     0     0
10     3     3     3     3
# ℹ 25 more rows
…
